<?xml version="1.0" encoding="utf-8"?>
<!-- Generator: Adobe Illustrator 18.1.1, SVG Export Plug-In . SVG Version: 6.00 Build 0)  -->
<svg version="1.1" id="Layer_1" xmlns="http://www.w3.org/2000/svg" xmlns:xlink="http://www.w3.org/1999/xlink" x="0px" y="0px"
	 viewBox="0 180.3 500 48" enable-background="new 0 180.3 500 48" xml:space="preserve">
<path fill="#F15B46" d="M499.5,193.4L499.5,193.4v-0.7v-0.4V192v-0.5l-0.2,0.2l-0.2-0.7l-0.7-0.7l-0.4-0.9l-0.4-0.2l-0.1,0.2
	l-0.2-0.4l-0.2-0.7l-0.2-0.4l-0.2-0.4l-0.4-0.2l-0.2-0.4l-0.5-0.1l-0.4-0.4l-0.2-0.5l-0.1-1l-0.2-0.2l-0.2-0.7v-0.6l-0.2-0.4
	l-0.4-0.4h-0.2l-0.2,0.2l-0.4-0.7l-0.1-0.7l-0.2-0.4l0,0l-0.2-0.1v-0.7l-0.2-0.2l-0.2,0.2l-0.1,0.2v0.5l-0.2,0.4v0.4l-0.1,0.5
	l-0.2,0.6v0.5l0.1,0.4l-0.2,0.4v0.7l-0.2,0.4l-0.1,0.4l-0.4,0.2l-0.6-0.2l-0.4-0.4l-0.4-0.1l-0.5-0.4l-0.4-0.2l-0.8-0.6l-0.4-0.2
	l0.4-1.1v-0.4l0.4-0.1l0.4-0.7l-0.2-0.4l-0.2,0.1l-0.2-0.2l-0.4,0.5l-0.2-0.2l-0.5-0.1l-0.6-0.2l-0.4-0.1l-0.4-0.2l-0.7-0.1l0.4,0.2
	l0.2,0.4l-0.2,0.2l-0.4,0.1l-0.5-0.1l-0.4,0.2l-0.2,0.2l-0.2,0.2l0.2,0.4l-0.4,0.2v0.2l-0.2,0.4l0.2,0.2v0.4l-0.2-0.1l-0.4-0.2
	l-0.2,0.2l-0.1,0.4l-0.1,0.1v-0.7l-0.4-0.1l-0.2-0.4l-0.2-0.2l-0.4,0.1l-0.2,0.4l-0.4,0.2l-0.2-0.2l-0.4,0.2l-0.2,0.7l-0.2,0.2
	l0.2,0.4l-0.1,0.4l-0.5,0.2l-0.2-0.1l-0.1,0.2l0.2,0.4l-0.1,0.4l-0.4-0.6l-0.2-0.4l-0.2,0.2l-0.2,0.4l0.1,0.4l0.2,0.4l-0.5,0.6
	l-0.2,0.6L477,188l-0.4,0.1l-0.4,0.2l-0.4,0.1l-0.2,0.5l-0.4-0.2l-0.4,0.5l-0.4-0.1l-0.4,0.4l-0.2,0.4h-0.2l-0.2,0.5l-0.2,0.4
	l-0.4-0.2v0.4l-0.1,0.2l0.2,0.5l-0.1,0.5l0.1,0.4l0.4,0.5l0.4,0.2l-0.1,0.6l-0.4-0.2l0.1,0.4l-0.2-0.1l0.4,0.6l0.2,0.4l0.4,0.7
	l0.4,0.4l0.5,0.2v0.7l0.2,0.5l0.7,0.9v0.5l0.1,0.6l-0.2,0.2l0.2,0.4l0.4,0.2l0.5,0.2l1.1-0.2l0.7-0.4l0.2-0.2l0.5-0.2l0.5-0.1
	l0.2,0.2l0.4-0.2h0.2l0.4-0.2l0.1-0.5l0.1-0.2l0.8-0.6l0.6,0.1l1.1-0.5l0.2-0.2l0.6-0.2l0.6,0.1l0.2-0.1l0.4,0.2l0.4,0.2h0.4
	l0.4,0.1l0.4,0.6l0.2,0.1l0.1,0.2l0.4,0.7l0.5,0.2l0.1-0.2l0.2-0.4l0.2-0.2l0.4-0.2l-0.1-0.4l0.1-0.2l0.4-0.2l-0.1,0.6l-0.4,0.9
	l-0.2,0.4h0.6l0.1-0.7l0.2,0.2v0.5l-0.2,0.4h0.2l0.4-0.2l0.4,0.6l0.2,0.5l0.1,0.4l0.8,0.7h0.7l0.4,0.2l0.4,0.2l0.6-0.4l0.1-0.2
	l0.1,0.4h0.2l0.5,0.4l0.5-0.2l0.5-0.4l0.4-0.1l0.4,0.1l0.5-0.2l0.2-0.4v-0.2l0.1-0.6l0.2-0.7l0.2-0.6l0.2-0.2l0.2-0.4l0.4-0.6
	l0.2-0.2l0.2-0.4l0.2-0.7V196l0.2-0.2l0.1-0.4l0.2-0.2L499.5,193.4L499.5,193.4z M495.4,203.7l-0.4,0.2l-0.4,0.2l-0.4-0.2l-0.4-0.2
	h-0.4v0.4l0.4,0.5v0.7l0.2,0.5l0.2,0.4h0.4l0.1-0.4l0.2-0.2h0.2V205l0.2-0.4v-0.8L495.4,203.7L495.4,203.7z"/>
<path fill="#004563" d="M2.3,180.3l-1.1,12.3h1.5c0.7-2.9,0.7-8,6.2-8h3.9V216L7,216.7v1.9h21v-1.9l-1.5-0.1c-4-0.7-4.2-0.4-4.2-3.4
	v-28.6h3.9c5.4,0,5.5,5.1,6.2,8h1.5l-1.1-12.2L2.3,180.3L2.3,180.3z M56.3,182.3l0.7,0.1c4,0.5,4.5,0.4,4.5,3.4v11H49.2V183l5.1-0.7
	v-2.1H34.8v2.1l1.2,0.1c4,0.4,4.7,0.4,4.7,3.4V216l-5.9,0.7v1.9h19.5v-1.9l-0.7-0.1c-4-0.5-4.5-0.4-4.5-3.4v-12.6h12.2V216l-5.1,0.7
	v1.9h19.5v-1.9l-0.7-0.1c-4-0.4-4.3-0.4-4.3-3.4v-30.1l5.1-0.7v-2.1H56.4L56.3,182.3L56.3,182.3z M97.8,214.6c-6.4,0-6-0.6-6-5.1v-9
	h6.7c2,0,4.3,0,4.3,5.1h1.5l1.1-13h-1.5c-0.4,2.1-0.7,4.3-4.5,4.3H92v-13h9c4.7,0,5.4,2.9,5.5,5.8h1.5l0.8-9.4H77.3v2.1l0.7,0.1
	c4,0.4,4.3,0.4,4.3,3.4v30.2l-5.1,0.7v1.9h31.1l1-10.9h-1.5C106.5,212.7,104.9,214.6,97.8,214.6L97.8,214.6z M154.3,213.8L143,180.2
	h-8.1L122.7,216l-4.8,0.7v1.9h13.7v-1.9c-3.6-0.4-5-0.8-4.1-3.6c0.2-0.6,1-3.2,2-5.3h13.1l2.9,8.3l-5.8,0.7v1.9H160v-1.9l-1.8-0.2
	C156.4,216.3,155.1,216.3,154.3,213.8L154.3,213.8z M130.8,203.4c2.5-7.2,5.3-15.4,5.3-15.4l5.1,15.4H130.8z M193.1,180.3h-14.5v2.1
	l0.7,0.1c4,0.4,4.3,0.4,4.3,3.4v17.8c0,6.2-0.4,11.3-8.4,11.3c-6.8,0-8.3-4.3-8.3-10.7V183l5.1-0.7v-2h-19.5v2.1l1.1,0.1
	c4,0.4,4.7,0.4,4.7,3.4v18.8c0,8.8,3.1,14.5,15.6,14.5c13.2,0,13.2-9.4,13.2-14.5V183l5.8-0.7L193.1,180.3L193.1,180.3z
	 M192.9,206.9L192.9,206.9L192.9,206.9z M212.7,196c-7.1-2.8-13.5-3.6-13.5-7.7c0-3.9,4.2-4.6,7.8-4.6c5.6,0,8.6,1.7,8.5,8.9h1.5
	c0,0,1-11.7,1-11.4c-2.9-0.7-6.8-1.7-10.6-1.7c-6.6,0-15.4,2.1-15.4,11.5c0,5.4,1.9,9,6.7,10.9c3,1.1,5.5,2.1,6.8,2.6
	c4.3,1.4,6.5,3,6.5,5.8c0,2.5-1.5,5.3-6.9,5.3c-3.7,0-6.2-1.1-7.2-1.5c-3-1.2-3.3-4.8-3.3-6.7l-1.5-0.2c-0.1,0.7-0.8,9.2-0.8,9.4
	c2.1,1.5,7.1,3,12.6,3c5.3,0,14.4-2.9,14.4-12.5C219.2,201.3,216.7,197.5,212.7,196L212.7,196z M220.8,180.3l-1.1,12.2h1.5
	c0.7-2.9,0.7-8,6.2-8h4v31.4l-5.8,0.7v1.9h21v-1.9l-1.5-0.1c-4-0.7-4.2-0.4-4.2-3.4v-28.6h3.9c5.4,0,5.5,5.1,6.2,8h1.5l-1.1-12.2
	L220.8,180.3L220.8,180.3z M353.5,214.5c-6.4,0-6.4-0.4-6.4-4.9V183l5.8-0.7v-2.1h-19.5v2.1l0.7,0.1c4,0.4,4.3,0.4,4.3,3.4V216
	l-4.3,0.7v1.9h28.4l1.1-13h-1.5C361,211.4,359.2,214.5,353.5,214.5L353.5,214.5z M289,214.3c-2.1-10.9-5.2-12.9-10.6-13.9
	c4-0.5,9.4-1.4,9.4-10c0-7.7-5.5-10.2-15.4-10.2h-19.3v2.1l0.7,0.1c4,0.4,4.3,0.4,4.3,3.4V216l-5.1,0.7v1.9h19.5v-1.9l-0.7-0.1
	c-4-0.4-4.3-0.4-4.3-3.4v-10.5h2.5c3.6,0,5.6,0.2,6.7,2.1c1.2,2.3,2,4.9,2.6,8.2c0.4,1.4,0.9,4.2,1.1,5.6H292v-1.9
	C289.9,216.3,289.4,216.5,289,214.3L289,214.3z M273,198.3h-5.3v-14.6h5.3c2.4,0,6.8,0.9,6.8,7C279.7,195.6,277.4,198.3,273,198.3
	L273,198.3z M328.4,213.8l-11.3-33.6H309L296.4,216l-3.4,0.7v1.9h10.9v-1.9c-2.1,0-4.2-0.4-3.4-2.8c0.2-0.5,1.2-3.3,2.4-6.2h13.9
	l2.8,8.3l-4.9,0.7v1.9h18.8v-1.9l-1.4-0.1C331,216.4,329.2,216.3,328.4,213.8L328.4,213.8z M304.3,203.4c2.8-7.2,5.9-16.4,5.9-16.4
	l5.2,16.4H304.3L304.3,203.4z M363.9,182.3l0.7,0.1c4,0.4,4.3,0.4,4.3,3.4V216l-5,0.7v1.9h19.5v-1.9l-0.7-0.1
	c-4-0.4-4.3-0.4-4.3-3.4V183l5.1-0.7v-2.1H364v2.1H363.9z M420.9,213.8l-11.3-33.6h-8.1L389.1,216l-4.9,0.7v1.9h14.4v-1.9
	c-4.3-0.4-5.2-0.8-4.3-3.6c0.2-0.6,0.7-3.2,1.7-5.3h13l2.7,8.3l-5.9,0.7v1.9h20.3v-1.9l-1.7-0.2
	C422.9,216.3,421.7,216.3,420.9,213.8L420.9,213.8z M397.4,203.4c2.5-7.2,5.3-15.4,5.3-15.4l5.1,15.4H397.4L397.4,203.4z
	 M452.1,180.3v2.1l1.1,0.1c4,0.4,4.7,0.4,4.7,3.4v19.7l-17-25.4h-14.8v2.1l1.7,0.1c4,0.7,4,0.4,4,3.4V216l-4.2,0.7v1.9h13.7v-1.9
	l-0.7-0.1c-4-0.4-4.3-0.4-4.3-3.4v-24.1l19.3,29.5h6.2V183l4.8-0.7v-2.1L452.1,180.3L452.1,180.3z"/>
<path fill="#004563" d="M303.7,223.4c-0.2-0.9-0.3-1.2-1.7-1.2c-0.3,0-0.5,0-0.8,0c0,0.6,0,1.9,0,2.5c0.2,0,0.2,0,0.6,0
	c1,0,1.1-0.2,1.2-0.8h0.2c0,0.5,0,1.5,0,2.1H303c-0.1-0.9-0.3-0.9-1.3-0.9c-0.3,0-0.3,0-0.5,0v1c0,1.6,0,1.6,0.1,1.7
	s0.4,0.1,0.8,0.2v0.2c-0.3,0-1.1,0-1.5,0s-1,0-1.3,0v-0.3c0.3,0,0.5,0,0.6-0.1c0.1-0.2,0.1-0.1,0.1-2.7s0-2.7-0.1-2.8
	s-0.3-0.1-0.6-0.1V222c0.3,0,1,0,1.3,0c0.4,0,2.8,0,3.2,0c0,0.4,0,1.2,0.1,1.5L303.7,223.4L303.7,223.4z"/>
<path fill="#004563" d="M308.2,228.3c-2.1,0-3.2-1.4-3.2-3.3c0-1.6,1.2-3.3,3.2-3.3c2.1,0,3.2,1.3,3.2,3.3
	C311.4,227,309.9,228.3,308.2,228.3z M308.2,222c-1.1,0-1.9,1.2-1.9,3c0,2.2,0.7,3,1.8,3c1.1,0,1.9-1.1,1.9-3S309.4,222,308.2,222z"
	/>
<path fill="#004563" d="M326.9,223.7c-0.1-1.1-0.4-1.3-1.1-1.3c-0.2,0-0.4,0-0.7,0c0,0.7,0,2,0,3.7c0,1.5,0,1.6,0.1,1.7
	c0.1,0.1,0.3,0.1,0.7,0.2v0.2c-0.3,0-1.1,0-1.3,0c-0.4,0-1.2,0-1.4,0V228c0.4,0,0.6-0.1,0.7-0.2c0.1-0.1,0.1-0.2,0.1-1.7
	c0-1.6,0-3,0-3.7c-0.3,0-0.5,0-0.7,0c-0.7,0-1,0.2-1.1,1.3H322c0-0.5,0-1.2,0-1.7h0.2c0,0,0,0.1,0.1,0.1c0.1,0.1,0.3,0.1,2.3,0.1
	s2.2,0,2.3-0.1c0,0,0-0.1,0.1-0.1h0.2c0,0.5,0,1.3,0,1.7L326.9,223.7L326.9,223.7z"/>
<path fill="#004563" d="M333.6,228.2c-0.4,0-1,0-1.3,0V228c0.3,0,0.5,0,0.6-0.1c0.1-0.2,0.1-0.2,0.1-2.8V225h-2.8v0.1
	c0,2.6,0,2.7,0.1,2.8s0.3,0.1,0.6,0.1v0.2c-0.3,0-0.9,0-1.3,0s-1,0-1.3,0V228c0.3,0,0.5,0,0.6-0.1c0.1-0.2,0.1-0.2,0.1-2.8
	s0-2.7-0.1-2.8s-0.3-0.1-0.6-0.1V222c0.3,0,1,0,1.3,0c0.4,0,1,0,1.3,0v0.2c-0.3,0-0.5,0-0.6,0.1s-0.1,0.2-0.1,2.4h2.8
	c0-2.2,0-2.3-0.1-2.4c-0.1-0.1-0.3-0.1-0.6-0.1V222c0.3,0,1,0,1.3,0c0.4,0,1,0,1.3,0v0.2c-0.3,0-0.5,0-0.6,0.1
	c-0.1,0.2-0.1,0.2-0.1,2.8s0,2.7,0.1,2.8s0.3,0.1,0.6,0.1v0.2C334.7,228.2,334,228.2,333.6,228.2z"/>
<path fill="#004563" d="M340.7,228.1c-0.2,0-3,0-3.4,0s-1.1,0-1.4,0V228c0.3,0,0.5,0,0.6-0.1c0.1-0.2,0.1-0.2,0.1-2.8s0-2.7-0.1-2.8
	s-0.3-0.1-0.6-0.1V222c0.3,0,1,0,1.4,0s2.9,0,3.3,0c0,0.4,0,1.2,0.1,1.5h-0.2c-0.2-0.9-0.5-1.2-1.6-1.2c-0.5,0-0.7,0-1,0
	c0,0.6,0,1.9,0,2.5c0.2,0,0.4,0,0.8,0c1,0,1.1-0.2,1.2-0.8h0.2c0,0.5,0,1.5,0,2h-0.2c-0.1-0.8-0.3-0.9-1.3-0.9c-0.4,0-0.5,0-0.7,0
	v0.9c0,1.4,0,1.6,0.2,1.7c0.1,0.1,0.4,0.2,1,0.2c0.9,0,1.5-0.6,1.7-1.4h0.2C340.8,226.8,340.7,227.7,340.7,228.1z"/>
<path fill="#004563" d="M346,228.2c-0.4,0-1,0-1.3,0V228c0.3,0,0.5,0,0.6-0.1c0.1-0.2,0.1-0.2,0.1-2.8s0-2.7-0.1-2.8
	s-0.3-0.1-0.6-0.1V222c0.3,0,1,0,1.3,0c0.4,0,1,0,1.3,0v0.2c-0.3,0-0.5,0-0.6,0.1c-0.1,0.2-0.1,0.2-0.1,2.8s0,2.7,0.1,2.8
	s0.3,0.1,0.6,0.1v0.2C347,228.2,346.4,228.2,346,228.2z"/>
<path fill="#004563" d="M354,222.4c-0.1,0.2-0.1,0.2-0.1,2.7c0,2,0,2.9,0,3.1h-0.4c-0.9-1.2-2.8-3.5-3.9-4.8v2.6
	c0,1.6,0,1.6,0.1,1.7c0.1,0.1,0.3,0.1,0.7,0.2v0.2c-0.3,0-0.6,0-1,0s-0.7,0-1,0V228c0.3,0,0.5,0,0.6-0.1c0.1-0.2,0.1-0.2,0.1-2.7
	v-2.1c-0.5-0.6-0.6-0.8-0.7-0.9V222c0.2,0,0.4,0,0.7,0s0.6,0,0.8,0c0.2,0.3,0.8,1.1,1,1.4l2.5,3.1v-2.3c0-1.6,0-1.6-0.1-1.7
	c-0.1-0.1-0.3-0.1-0.7-0.2V222c0.3,0,0.6,0,1,0s0.7,0,1,0v0.2C354.4,222.2,354.1,222.2,354,222.4z"/>
<path fill="#004563" d="M359.9,223.4c-0.2-0.9-0.3-1.2-1.7-1.2c-0.3,0-0.5,0-0.8,0c0,0.6,0,1.9,0,2.5c0.2,0,0.2,0,0.6,0
	c1,0,1.1-0.2,1.2-0.8h0.2c0,0.5,0,1.5,0,2.1h-0.2c-0.1-0.9-0.3-0.9-1.3-0.9c-0.3,0-0.3,0-0.5,0v1c0,1.6,0,1.6,0.1,1.7
	s0.4,0.1,0.8,0.2v0.2c-0.3,0-1.1,0-1.5,0s-1,0-1.3,0v-0.3c0.3,0,0.5,0,0.6-0.1c0.1-0.2,0.1-0.1,0.1-2.7s0-2.7-0.1-2.8
	s-0.3-0.1-0.6-0.1V222c0.3,0,1,0,1.3,0c0.4,0,2.8,0,3.2,0c0,0.4,0,1.2,0.1,1.5L359.9,223.4L359.9,223.4z"/>
<path fill="#004563" d="M364.4,228.3c-2.1,0-3.2-1.4-3.2-3.3c0-1.6,1.2-3.3,3.2-3.3c2.1,0,3.2,1.3,3.2,3.3S366.2,228.3,364.4,228.3z
	 M364.4,222c-1.1,0-1.9,1.2-1.9,3c0,2.2,0.7,3,1.8,3c1.1,0,1.9-1.1,1.9-3C366.2,223.1,365.6,222,364.4,222z"/>
<path fill="#004563" d="M381.7,228.2c-0.4,0-1.2,0-1.5,0V228c0.3,0,0.6,0,0.7-0.2c0.1-0.1,0.1-0.1,0.1-1.8v-2.9l-1.2,3
	c-0.2,0.5-0.6,1.5-0.8,2.1h-0.4c-0.3-0.8-0.4-1.1-0.7-1.8l-1.4-3.3v2.9c0,1.6,0,1.7,0.1,1.8s0.3,0.1,0.7,0.2v0.2c-0.3,0-0.6,0-1,0
	s-0.7,0-1,0V228c0.3,0,0.5,0,0.6-0.1c0.1-0.2,0.1-0.2,0.1-2.8s0-2.7-0.1-2.8s-0.3-0.1-0.6-0.1V222c0.3,0,0.5,0,0.9,0
	c0.3,0,0.8,0,1.1,0c0.2,0.6,0.7,1.8,0.9,2.3l1,2.3l1-2.4c0.3-0.8,0.6-1.5,0.8-2.2c0.1,0,0.5,0,0.7,0c0.4,0,0.9,0,1.2,0v0.2
	c-0.3,0-0.5,0-0.6,0.1c-0.1,0.2-0.1,0.2-0.1,2.8s0,2.7,0.1,2.8s0.3,0.1,0.6,0.1v0.2C382.5,228.2,382.1,228.2,381.7,228.2z"/>
<path fill="#004563" d="M388.8,228.2c-0.2,0-3,0-3.4,0s-1.1,0-1.4,0V228c0.3,0,0.5,0,0.6-0.1c0.1-0.2,0.1-0.2,0.1-2.8s0-2.7-0.1-2.8
	s-0.3-0.1-0.6-0.1V222c0.3,0,1,0,1.4,0s2.9,0,3.3,0c0,0.4,0,1.2,0.1,1.5h-0.2c-0.2-0.9-0.5-1.2-1.6-1.2c-0.5,0-0.7,0-1,0
	c0,0.6,0,1.9,0,2.5c0.2,0,0.4,0,0.8,0c1,0,1.1-0.2,1.2-0.8h0.2c0,0.5,0,1.5,0,2H388c-0.1-0.8-0.3-0.9-1.3-0.9c-0.4,0-0.5,0-0.7,0
	v0.9c0,1.4,0,1.6,0.2,1.7c0.1,0.1,0.4,0.2,1,0.2c0.9,0,1.5-0.6,1.7-1.4h0.2C389,226.8,388.8,227.8,388.8,228.2z"/>
<path fill="#004563" d="M394.3,228c-0.4,0.2-0.8,0.2-1.3,0.2c-0.6,0-1.3,0-1.7,0c-0.4,0-1,0-1.3,0v-0.1c0.3,0,0.5,0,0.6-0.1
	c0.1-0.2,0.1-0.3,0.1-2.9s0-2.7-0.1-2.8s-0.3-0.1-0.6-0.1V222c0.3,0,1,0,1.3,0c0.4,0,1.1,0,1.5,0c1.3,0,2,0.2,2.5,0.7
	c0.4,0.4,0.9,1.2,0.9,2.3C396.2,226.3,395.3,227.6,394.3,228z M392.7,222.1c-0.1,0-0.5,0-0.7,0c0,0.6,0,2,0,2.9c0,2.4,0,2.6,0.1,2.7
	s0.2,0.2,0.8,0.2c1.4,0,2-1.4,2-3C394.9,223.8,394.4,222.1,392.7,222.1z"/>
<path fill="#004563" d="M412.5,222.4c-0.1,0.2-0.1,0-0.1,2.6c0,1.4,0,2.1-0.6,2.7c-0.4,0.3-0.9,0.5-1.6,0.5c-0.9,0-1.6-0.4-1.8-0.6
	c-0.5-0.5-0.7-0.8-0.7-2.5c0-2.6,0-2.7-0.1-2.8s-0.3-0.1-0.6-0.1V222c0.3,0,1,0,1.3,0c0.4,0,1,0,1.3,0v0.2c-0.3,0-0.5,0-0.6,0.1
	c-0.1,0.2-0.1,0.2-0.1,2.8c0,1.6,0.1,1.9,0.4,2.3c0.2,0.3,0.7,0.5,1.1,0.5s0.8-0.1,1.1-0.4c0.5-0.5,0.5-0.9,0.5-2.4
	c0-2.6,0-2.6-0.1-2.7s-0.3-0.1-0.7-0.2V222c0.3,0,0.6,0,1,0s0.6,0,0.9,0v0.2C412.8,222.2,412.5,222.2,412.5,222.4z"/>
<path fill="#004563" d="M416,228.2c-0.6,0-1-0.2-1.4-0.2c-0.1,0-0.2,0.1-0.3,0.2h-0.2c0-0.5,0-1.3,0-1.8h0.2
	c0.1,0.6,0.6,1.4,1.5,1.4c0.5,0,1.2-0.4,1.2-1c0-1.3-2.9-0.9-2.9-3c0-0.9,0.7-1.8,1.7-1.8c0.4,0,1,0.2,1.2,0.2
	c0.1,0,0.2-0.1,0.2-0.2h0.2c0,0.5,0,1.1,0,1.7h-0.2c-0.2-0.8-0.7-1.4-1.4-1.4c-0.6,0-1.1,0.4-1.1,0.9c0,1.3,3,0.9,3,2.9
	C417.8,227.3,417,228.2,416,228.2z"/>
<path fill="#004563" d="M424.2,223.8c-0.1-1.1-0.4-1.3-1.1-1.3c-0.2,0-0.4,0-0.7,0c0,0.7,0,1.8,0,3.5c0,1.6,0,1.7,0.1,1.8
	s0.3,0.1,0.7,0.2v0.2c-0.3,0-1.1,0-1.4,0c-0.4,0-1.2,0-1.5,0V228c0.4,0,0.6-0.1,0.7-0.2c0.1-0.1,0.1-0.2,0.1-1.8c0-1.7,0-2.8,0-3.5
	c-0.3,0-0.5,0-0.7,0c-0.7,0-1,0.2-1.1,1.3h-0.2c0-0.5,0-1.2,0-1.8h0.2c0,0,0,0.1,0.1,0.1c0.1,0.1,0.3,0.1,2.4,0.1s2.3,0,2.4-0.1
	c0,0,0-0.1,0.1-0.1h0.2c0,0.5,0,1.3,0,1.8H424.2z"/>
<path fill="#004563" d="M461.3,222.4c-0.1,0.2-0.1,0-0.1,2.6c0,2.1,0,3,0,3.2h-0.4c-0.9-1.2-2.9-3.6-4-4.9v2.7c0,1.6,0,1.7,0.1,1.8
	s0.3,0.1,0.7,0.2v0.2c-0.3,0-0.6,0-1,0s-0.7,0-1,0V228c0.3,0,0.5,0,0.6-0.1c0.1-0.2,0.1-0.2,0.1-2.8v-2.2c-0.5-0.6-0.6-0.6-0.7-0.7
	V222c0.2,0,0.4,0,0.7,0c0.3,0,0.6,0,0.8,0c0.2,0.3,0.8,0.9,1,1.2l2.6,3.2V224c0-1.6,0-1.5-0.1-1.6s-0.3-0.1-0.7-0.2V222
	c0.3,0,0.6,0,1,0s0.7,0,1,0v0.2C461.6,222.2,461.4,222.2,461.3,222.4z"/>
<path fill="#004563" d="M317.6,228.2c-0.3,0-0.7,0-1,0c-1.3-2.5-1-3.2-2.3-3.2c0,2.6,0,2.8,0.1,2.9s0.4,0.1,0.7,0.1v0.2
	c-0.3,0-1,0-1.4,0s-1,0-1.3,0V228c0.3,0,0.5,0,0.6-0.1c0.1-0.2,0.1-0.3,0.1-2.9s0-2.7-0.1-2.8s-0.3-0.1-0.6-0.1v-0.2
	c0.3,0,1,0,1.3,0c0.4,0,1.2,0,1.7,0c1.2,0,2,0.6,2,1.5c0,0.8-0.6,1.4-1.7,1.5c1,0.2,1.3,1.2,1.8,2.2c0.4,0.8,0.5,0.9,0.9,0.9v0.2
	C318.1,228.2,317.8,228.2,317.6,228.2z M314.9,222.2c-0.2,0-0.4,0-0.6,0c0,0.5,0,1.6,0,2.6c0.1,0,0.4,0,0.6,0c0.8,0,1.2-0.6,1.2-1.3
	C316,222.6,315.6,222.2,314.9,222.2z"/>
<path fill="#004563" d="M373.8,228.2c-0.3,0-0.7,0-1,0c-1.3-2.5-1-3.4-2.3-3.4c0,2.6,0,2.9,0.1,3s0.4,0.1,0.7,0.1v0.2
	c-0.3,0-1,0-1.4,0s-1,0-1.3,0V228c0.3,0,0.5,0,0.6-0.1c0.1-0.2,0.1-0.4,0.1-3s0-2.5-0.1-2.6s-0.3-0.1-0.6-0.1V222c0.3,0,1,0,1.3,0
	c0.4,0,1.2,0,1.7,0c1.2,0,2,0.4,2,1.3c0,0.8-0.6,1.4-1.7,1.5c1,0.2,1.3,1.2,1.8,2.2c0.4,0.8,0.5,1.1,0.9,1.1v0.2
	C374.3,228.2,374,228.2,373.8,228.2z M371.1,222.3c-0.2,0-0.4,0-0.6,0c0,0.5,0,1.4,0,2.4c0.1,0,0.4,0,0.6,0c0.8,0,1.2-0.6,1.2-1.3
	C372.3,222.4,371.8,222.3,371.1,222.3z"/>
<path fill="#004563" d="M405,228.2c-0.5,0-1.2,0-1.5,0V228c0.5,0,0.7-0.1,0.7-0.4c0-0.1-0.2-0.7-0.4-1.5h-1.9
	c-0.3,0.9-0.4,1.3-0.4,1.5c0,0.3,0.3,0.4,0.6,0.4v0.2c-0.2,0-0.6,0-1,0c-0.3,0-0.7,0-0.9,0V228c0.4,0,0.6-0.1,0.9-0.7
	c0.4-0.9,1.5-3.8,2-5.3h0.5c0.5,1.4,1.5,4,2,5.3c0.2,0.6,0.3,0.7,0.8,0.7v0.2C406,228.2,405.4,228.2,405,228.2z M402.8,223.4
	c-0.4,1-0.7,1.8-0.9,2.4h1.7C403.4,225.1,403.1,224.3,402.8,223.4z"/>
<path fill="#004563" d="M430.5,228.2c-0.3,0-0.7,0-1,0c-1.3-2.5-1-3.1-2.3-3.1c0,2.6,0,2.7,0.1,2.8s0.4,0.1,0.7,0.1v0.2
	c-0.3,0-1,0-1.4,0s-1,0-1.3,0V228c0.3,0,0.5,0,0.6-0.1c0.1-0.2,0.1-0.2,0.1-2.8s0-2.7-0.1-2.8s-0.3-0.1-0.6-0.1V222c0.3,0,1,0,1.3,0
	c0.4,0,1.2,0,1.7,0c1.2,0,2,0.6,2,1.5c0,0.8-0.6,1.4-1.7,1.5c1,0.2,1.3,1.2,1.8,2.2c0.4,0.8,0.5,0.8,0.9,0.8v0.2
	C431,228.2,430.7,228.2,430.5,228.2z M427.8,222.2c-0.2,0-0.4,0-0.6,0c0,0.5,0,1.6,0,2.6c0.1,0,0.4,0,0.6,0c0.8,0,1.2-0.6,1.2-1.3
	C429,222.6,428.5,222.2,427.8,222.2z"/>
<path fill="#004563" d="M437,228.2c-0.5,0-1.2,0-1.5,0V228c0.5,0,0.7-0.1,0.7-0.4c0-0.1-0.2-0.7-0.4-1.5h-1.9
	c-0.3,0.9-0.4,1.3-0.4,1.5c0,0.3,0.3,0.4,0.6,0.4v0.2c-0.2,0-0.6,0-1,0c-0.3,0-0.7,0-0.9,0V228c0.4,0,0.6-0.1,0.9-0.7
	c0.4-0.9,1.5-3.9,2-5.4h0.5c0.5,1.4,1.5,4.1,2,5.4c0.2,0.6,0.3,0.7,0.8,0.7v0.2C438,228.2,437.5,228.2,437,228.2z M434.8,223.4
	c-0.4,1-0.7,1.8-0.9,2.4h1.7C435.4,225.1,435.1,224.4,434.8,223.4z"/>
<path fill="#004563" d="M444,228.2c-0.2,0-2.9,0-3.3,0s-1,0-1.3,0V228c0.3,0,0.5,0,0.6-0.1c0.1-0.2,0-0.1,0-2.7s0-2.8-0.1-2.9
	s-0.3-0.1-0.6-0.1V222c0.3,0,1,0,1.3,0c0.4,0,1,0,1.3,0v0.2c-0.3,0-0.5,0-0.6,0.1c-0.1,0.2-0.1,0.3-0.1,2.9c0,2.4,0.1,2.4,0.3,2.6
	c0.1,0.1,0.3,0.2,0.9,0.2c0.9,0,1.3-0.5,1.7-1.7h0.2C444.1,226.6,444,227.8,444,228.2z"/>
<path fill="#004563" d="M446.3,228.2c-0.4,0-1,0-1.3,0V228c0.3,0,0.5,0,0.6-0.1c0.1-0.2,0.1-0.1,0.1-2.7s0-2.8-0.1-2.9
	s-0.3-0.1-0.6-0.1V222c0.3,0,1,0,1.3,0c0.4,0,1,0,1.3,0v0.2c-0.3,0-0.5,0-0.6,0.1c-0.1,0.2-0.1,0.3-0.1,2.9s0,2.6,0.1,2.7
	s0.3,0.1,0.6,0.1v0.2C447.4,228.2,446.7,228.2,446.3,228.2z"/>
<path fill="#004563" d="M453.5,228.2c-0.5,0-1.2,0-1.5,0V228c0.5,0,0.7-0.1,0.7-0.4c0-0.1-0.2-0.6-0.4-1.4h-1.9
	c-0.3,0.9-0.4,1.2-0.4,1.4c0,0.3,0.3,0.4,0.6,0.4v0.2c-0.2,0-0.6,0-1,0c-0.3,0-0.7,0-0.9,0V228c0.4,0,0.6,0,0.9-0.6
	c0.4-0.9,1.5-3.9,2-5.4h0.5c0.5,1.4,1.5,4.1,2,5.4c0.2,0.6,0.3,0.6,0.8,0.6v0.2C454.5,228.2,453.9,228.2,453.5,228.2z M451.3,223.4
	c-0.4,1-0.7,1.8-0.9,2.4h1.7C451.9,225.1,451.6,224.4,451.3,223.4z"/>
</svg>
